Step,ObjectName,Description,Action,Input,Condition,Reference
1,Browser,Wait for [<Data>] milli seconds,pause,@2000,,
2,Enter_City_State_or_Zip_Code,Enter the value [<Data>] in the [<Object>] if it exists,Set,Desktop:State,,Store33
3,Browser,Wait for [<Data>] milli seconds,pause,@2000,,
4,Find_Stores,Click on [<Object>],clickByJS,,,Store33
5,Browser,Wait for Page to be loaded,waitForPageLoaded,,,
6,Browser,Wait for [<Data>] milli seconds,pause,@2000,,
7,Browser,Scroll to [<Data>],scrollTo,"@250,600",,
8,M.A.C BUCURESTI MALL,Assert if [<Object>] element is displayed,assertElementDisplayed,,,StoreLocator
9,M.A.C BUCURESTI MALL,Store the [<Object>] element's text into datasheet:columname [<Data>],storeTextinDataSheet,Desktop:ZipStore,,StoreLocator
10,1.86Km,Assert if [<Object>] element is displayed,assertElementDisplayed,,,StoreLocator
11,1.86Km,Store the [<Object>] element's text into datasheet:columname [<Data>],storeTextinDataSheet,Desktop:ZipDistance,,StoreLocator
12,Browser,Wait for [<Data>] milli seconds,pause,@4000,,
