Step,ObjectName,Description,Action,Input,Condition,Reference
1,Browser,,Open,Desktop:URL,,
2,Browser,,pause,@15000,,
3,Browser,,ClearCache,,,
4,Browser,,waitForPageLoaded,,,
5,Browser,,pause,@5000,,
6,Browser,,refreshDriver,,,
7,Browser,,waitForPageLoaded,,,
8,Browser,,pause,@3000,,
