Step,ObjectName,Description,Action,Input,Condition,Reference
1,Browser,Wait for [<Data>] milli seconds,pause,@5000,,
2,Browser,Wait for Page to be loaded,waitForPageLoaded,,,
3,PasswordAfterCheckout,Enter the value [<Data>] in the Field [<Object>],Set,Desktop:Password,,Checkout
4,T&CCheckboxAferCheckout,"Click the [<Object>] ",clickByJS,,,Checkout
5,Browser,Wait for [<Data>] milli seconds,pause,@3000,,
6,ContinueAfterCheckout,Click on [<Object>],clickByJS,,,Checkout
7,Browser,Wait for Page to be loaded,waitForPageLoaded,,,
8,Browser,Wait for [<Data>] milli seconds,pause,@30000,,
"//9",Execute,,TC01:AccountPageNav,,,
10,Browser,Wait for Page to be loaded,waitForPageLoaded,,,
11,Browser,Wait for [<Data>] milli seconds,pause,@5000,,
12,Sign_Out,Wait  for the element [<Object>] to be present,waitForElementToBePresent,,,MAC_EMEA
13,Sign_Out,Click on [<Object>],clickByJS,,,MAC_EMEA
14,Browser,Wait for Page to be loaded,waitForPageLoaded,,,
