Step,ObjectName,Description,Action,Input,Condition,Reference
1,Browser,Wait for Page to be loaded,waitForPageLoaded,,,
2,Browser,Wait for [<Data>] milli seconds,pause,@5000,,
3,SelectPaymentMethodRadioBtn,"Click the [<Object>] ",clickByJS,,,PaymentEMEA
4,Browser,Wait for [<Data>] milli seconds,pause,@5000,,
5,ContinueforPayment,Click on [<Object>],clickByJS,,,PaymentEMEA
6,Browser,Wait for [<Data>] milli seconds,pause,@5000,,
7,Browser,Wait for Page to be loaded,waitForPageLoaded,,,
8,Frame,Switch to frame by name: [<Data>],waitForFrameAndSwitch,,,PaymentEMEA
9,Browser,Wait for [<Data>] milli seconds,pause,@2000,,
10,CardNumber,Enter the value [<Data>] in the Field [<Object>],Set,Desktop:CC,,PaymentEMEA
"//11",MonthExpDate,Select item in [<Object>] which has the value: [<Data>],selectByValue,@3,,PaymentEMEA
"//12",YearExpDate,Select item in [<Object>] which has the value: [<Data>],selectByValue,@2021,,PaymentEMEA
13,Browser,Send Keys [<Data>]  to Window.,sendKeysToWindow,@tab,,
14,Browser,Send Keys [<Data>]  to Window.,sendKeysToWindow,@down,,
15,Browser,Send Keys [<Data>]  to Window.,sendKeysToWindow,@down,,
16,Browser,Send Keys [<Data>]  to Window.,sendKeysToWindow,@down,,
17,Browser,Send Keys [<Data>]  to Window.,sendKeysToWindow,@tab,,
18,Browser,Send Keys [<Data>]  to Window.,sendKeysToWindow,@down,,
19,Browser,Send Keys [<Data>]  to Window.,sendKeysToWindow,@down,,
20,Browser,Send Keys [<Data>]  to Window.,sendKeysToWindow,@down,,
21,cvv,Enter the value [<Data>] in the Field [<Object>],Set,Desktop:CVV,,PaymentEMEA
22,continue,Click on [<Object>],clickByJS,,,PaymentEMEA
23,Browser,Wait for [<Data>] milli seconds,pause,@5000,,
24,Browser,Wait for Page to be loaded,waitForPageLoaded,,,
25,AtmPassword,Enter the value [<Data>] in the Field [<Object>],Set,Desktop:AtmPassword,,PaymentEMEA
26,Submit,Click on [<Object>],clickByJS,,,PaymentEMEA
