Step,ObjectName,Description,Action,Input,Condition,Reference
1,Browser,,waitForPageLoaded,,,
2,Browser,,pause,@3000,,
3,Remove,,clickByJS,,,MAC_EMEA
4,Browser,,waitForPageLoaded,,,
5,Browser,,pause,@3000,,
