Step,ObjectName,Description,Action,Input,Condition,Reference
1,Browser,Wait for [<Data>] milli seconds,pause,@4000,,
2,satin (9),"Wait for [<Object>] to be visible ",waitForElementToBePresent,,,Lipmix
3,satin (9),Assert if [<Object>] element is displayed,assertElementDisplayed,,,Lipmix
4,satin (9),"Click the [<Object>] ",Click,,,Lipmix
5,Browser,Wait for [<Data>] milli seconds,pause,@6000,,
6,satin (9),Assert if [<Object>]'s Attribute Equals [<Data>],assertElementAttrEquals,@text (9),,Lipmix
7,Browser,Wait for [<Data>] milli seconds,pause,@3000,,
8,Done_ACABADO,"Click the [<Object>] ",Click,,,FoundationFiltering
