Step,ObjectName,Description,Action,Input,Condition,Reference
1,Browser,,Open,Desktop:url11,,
2,Browser,,waitForPageLoaded,,,
3,Browser,,pause,@3000,,
4,Browser,,scrollTo,"@250,500",,
5,Browser,,waitForPageLoaded,,,
6,Browser,,pause,@2000,,
7,Browser,,scrollTo,"@250,500",,
8,Add to Bag,,clickByJS,,,Skin
9,Browser,,pause,@5000,,
