Step,ObjectName,Description,Action,Input,Condition,Reference
1,Browser,,Open,Desktop:url4,,
2,Browser,,scrollTo,"@250,350",,
3,Add to Bag,Wait untill given condition is satisfied,conditionalWait,,,AddToBag
4,Add to Bag,,clickByJS,,,AddToBag
