Step,ObjectName,Description,Action,Input,Condition,Reference
1,Browser,,Open,Desktop:url8,,
2,Browser,,waitForPageLoaded,,,
3,Browser,,pause,@3000,,
4,Close button,,ClickIfVisible,,,UnusedElements
5,Browser,,scrollTo,"@250,500",,
6,Add to Bag,,clickByJS,,,AddToBag
7,Browser,,pause,@5000,,
