Step,ObjectName,Description,Action,Input,Condition,Reference
1,Browser,,waitForPageLoaded,,,
2,Browser,,pause,@7000,,
3,Edit_Payment_Method,,clickByJS,,,MAC_EMEA
4,Browser,,pause,@3000,,
5,Browser,,scrollToBottom,,,
6,DownArrow,,clickByJS,,,GiftCard
7,Browser,,pause,@3000,,
8,GiftCardNumber,,Set,Desktop:Gift card no.,,Checkout
9,GiftCardPin,,Set,Desktop:Gift card pin,,Checkout
10,Continue payment,,clickByJS,,,Checkout
