Step,ObjectName,Description,Action,Input,Condition,Reference
1,Browser,Wait for Page to be loaded,waitForPageLoaded,,,
2,Browser,Wait for [<Data>] milli seconds,pause,@5000,,
3,ShippingMethodChange,Click on [<Object>],clickByJS,,,Checkout
4,Browser,Wait for [<Data>] milli seconds,pause,@5000,,
5,Express (2-3 Bus days) - CA $1,Click on [<Object>],clickByJS,,,Aveda17
6,Browser,Wait for Page to be loaded,waitForPageLoaded,,,
7,Browser,Wait for [<Data>] milli seconds,pause,@3000,,
