Step,ObjectName,Description,Action,Input,Condition,Reference
1,Browser,Open the Url [<Data>] in the Browser,Open,Desktop:HomePageURL,,
2,Browser,Wait for [<Data>] milli seconds,pause,@5000,,
3,Browser,"Refresh current page ",refreshDriver,,,
4,Site Logo,Wait untill given condition is satisfied,conditionalWait,,,UnusedElements
5,Browser,Wait for [<Data>] milli seconds,pause,@5000,,
