Step,ObjectName,Description,Action,Input,Condition,Reference
"//1",App,Open the Application [<Data>],openApp,Desktop:AutoIT,,
2,Execute,,BaseRC:MultiPass,,,
"//3",Execute,,BaseRC:TestOrder,,,
4,Execute,,TC02:AccountPageNav,@1,,
5,Execute,,TC02:ReturnUserFlow,@1,,
6,Execute,,BaseRC:Dummy,,,
7,Execute,,TC02:AddProduct1,@1,,
8,Execute,,TC02:AddProduct2,@1,,
9,Execute,,TC02:AddProduct3,@1,,
"//10",Execute,,TC02:ViewCartNavWithMsg,,,
11,Execute,,TC02:IncreaseQuantity,@1,,
12,Execute,,TC02:RemovingProduct,@1,,
13,Execute,,TC02:SignOut,@1,,
14,Execute,,TC02:ReturnUserFlow,@1,,
15,Execute,,TC02:AddProduct4,@1,,
16,Execute,,TC02:ViewCartNavWithMsg,,,
17,Execute,,TC02:SamplesCheckout,@1,,
18,Execute,,TC02:EditShippingAddress,@1,,
19,Execute,,TC02:Payment,@1,,
20,Execute,,TC02:PlaceOrder,@1,,
"//21",App,[<Data>] app is closed,closeApp,Desktop:AutoIT,,
