Step,ObjectName,Description,Action,Input,Condition,Reference
"//1",App,Open the Application [<Data>],openApp,Desktop:AutoIT,,
2,Execute,,BaseRC:MultiPass,,,
"//3",Execute,,BaseRC:TestOrder,,,
4,Execute,,TC04:AccountPageNav,@1,,
5,Execute,,TC04:ReturnUserFlow,@1,,
6,Execute,,TC04:FavoriteAdd1,@1,,
7,Execute,,TC04:FavoriteAdd2,@1,,
8,Execute,,TC04:AddCartFav,@1,,
9,Execute,,TC04:ViewCartNav,@1,,
10,Execute,,TC04:SamplesCheckout,@1,,
"//11",Execute,,TC04:ShippingPage,@1,,
12,Execute,,TC04:PaymentDifferentBilling_RO,@1,,
"//13",Execute,,TC04:EditBillingAddress,@1,,
14,Execute,,TC04:Payment,@1,,
15,Execute,,TC04:PlaceOrder,@1,,
"//16",App,[<Data>] app is closed,closeApp,Desktop:AutoIT,,
