Step,ObjectName,Description,Action,Input,Condition,Reference
"//1",App,Open the Application [<Data>],openApp,Desktop:AutoIT,,
2,Execute,,BaseRC:MultiPass,,,
3,Execute,,TC21:HomePageNav,,,
4,Execute,,TC21:SearchProductByName,,,
5,Execute,,TC24:HomePageNav,,,
6,Execute,,TC24:SearchProductByID,,,
"//7",App,Click the [<Object>] on the text[<Data>],closeApp,Desktop:AutoIT,,
