Step,ObjectName,Description,Action,Input,Condition,Reference
1,Browser,Generates random email and updates test data sheet,NewUserRandomEmail,Desktop:UserName,,
2,Email New user,Enter the value [<Data>] in the [<Object>] if it exists,conditionalWait,,,Checkout
3,Email New user,Enter the value [<Data>] in the [<Object>] if it exists,Set,Desktop:UserName,,Checkout
4,Continue New user,Click on [<Object>],clickByJS,,,Checkout
