Step,ObjectName,Description,Action,Input,Condition,Reference
1,Browser,,Open,Desktop:url13,,
2,Browser,,pause,@5000,,
3,Browser,,waitForPageLoaded,,,
4,Browser,,pause,@3000,,
5,Browser,,scrollTo,"@250,250",,
6,Browser,,pause,@7000,,
7,QuickView,,clickByJS,,,MAC_EMEA
8,Browser,,pause,@3000,,
9,Add to Bag,,clickByJS,,,AddToBag
10,Browser,,pause,@5000,,
