Step,ObjectName,Description,Action,Input,Condition,Reference
1,Browser,,Open,Desktop:ViewcartURL,,
2,Site Logo,Wait untill given condition is satisfied,conditionalWait,,,UnusedElements
3,Browser,,waitForPageLoaded,,,
