Step,ObjectName,Description,Action,Input,Condition,Reference
1,Browser,Open the Url [<Data>] in the Browser,Open,Desktop:MyAccountURL,,
2,Browser,To delete all the cookies,ClearCache,,,
3,Browser,Wait for [<Data>] milli seconds,pause,@10000,,
4,Browser,Wait for Page to be loaded,waitForPageLoaded,,,
5,Browser,Wait for [<Data>] milli seconds,pause,@5000,,
6,Browser,"Refresh current page ",refreshDriver,,,
7,Close button,Click the [<Object>] if it is displayed,ClickIfVisible,,,UnusedElements
