Step,ObjectName,Description,Action,Input,Condition,Reference
1,Browser,Open the Url [<Data>] in the Browser,Open,Desktop:HomePageURL,@1,
2,Browser,Wait for [<Data>] milli seconds,pause,@5000,,
3,Browser,"Refresh current page ",refreshDriver,,,
4,Browser,Wait for [<Data>] milli seconds,pause,@5000,,
5,Mi MAC GnavSignIn,"Click the [<Object>] ",Click,,,MAC-EMEA-ES
6,Browser,Wait for [<Data>] milli seconds,pause,@2000,,
7,RegisterLink,Click on [<Object>],clickByJS,,,MAC-EMEA-ES
8,Browser,Wait for [<Data>] milli seconds,pause,@2000,,
