Step,ObjectName,Description,Action,Input,Condition,Reference
1,Browser,To delete all the cookies,ClearCache,,,
2,Browser,Open the Url [<Data>] in the Browser,Open,Desktop:url2,,
3,Browser,Wait for [<Data>] milli seconds,waitForPageLoaded,,,
4,Browser,"Refresh current page ",refreshDriver,,,
5,Browser,Wait for [<Data>] milli seconds,waitForPageLoaded,,,
6,Review,Move the Browser View to the specified element [<Object>],moveTo,,,Reviews
7,Review,"Click the [<Object>] ",Click,,,Reviews
8,Browser,Wait for [<Data>] milli seconds,pause,@3000,,
