Step,ObjectName,Description,Action,Input,Condition,Reference
"//1",Execute,,TC21:ReviewPageNav,@1,,
2,RatingsSection,Move the Browser View to the specified element [<Object>],moveTo,,,Reviews
3,RatingsSection,Assert if [<Object>] is present,assertElementPresent,,,Reviews
4,Ratings_4,"Click the [<Object>] ",Click,,,Reviews
5,RecommendSelect_Yes,"Click the [<Object>] ",Click,,,Reviews
6,UserNickName,Enter the value [<Data>] in the Field [<Object>],Set,Desktop:Review_NickName,,Reviews
7,UserLocation,Enter the value [<Data>] in the Field [<Object>],Set,Desktop:Review_UserLocation,,Reviews
8,ReviewTitle,Enter the value [<Data>] in the Field [<Object>],Set,Desktop:ReviewTitle,,Reviews
9,ReviewTextBox,Enter the value [<Data>] in the Field [<Object>],Set,Desktop:Review_TextBoxContent,,Reviews
10,guidelines,Move the Browser View to the specified element [<Object>],moveTo,,,Reviews
11,guidelines,Assert if [<Object>] is present,assertElementPresent,,,Reviews
12,Tag your review,Move the Browser View to the specified element [<Object>],moveTo,,,Reviews
13,Tag your review,Assert if [<Object>] is present,assertElementPresent,,,Reviews
14,Creamy,Click on [<Object>],clickByJS,,,Reviews
15,TextBoxId,Enter the value [<Data>] in the Field [<Object>],Set,Desktop:Review_TextBoxId,,Reviews
16,Whr_did_you_buy_Maccosmetics,Move the Browser View to the specified element [<Object>],moveTo,,,Reviews
17,Whr_did_you_buy_Maccosmetics,"Click the [<Object>] ",Click,,,Reviews
18,SweepstakesOrcontest,"Click the [<Object>] ",Click,,,Reviews
19,Read&AcceptCondition,"Click the [<Object>] ",Click,,,Reviews
20,Browser,Wait for [<Data>] milli seconds,pause,@3000,,
21,Preview,Click on [<Object>],clickByJS,,,Reviews
22,Browser,Wait for [<Data>] milli seconds,pause,@3000,,
