Step,ObjectName,Description,Action,Input,Condition,Reference
1,Browser,,pause,@5000,,
2,Email New user,,waitForElementToBeVisible,,,Checkout
3,Email New user,,Set,Desktop:UserName,,Checkout
4,Continue New user,,clickByJS,,,Checkout
5,Browser,,pause,@15000,,
