Step,ObjectName,Description,Action,Input,Condition,Reference
"//1",Site Logo,Click on [<Object>],clickByJS,,,UnusedElements
2,Browser,Wait for [<Data>] milli seconds,pause,@2000,,
3,Viewcarticon,"Wait for [<Object>] to be clickable ",waitForElementToBeClickable,,,UnusedElements
4,Viewcarticon,"Click the [<Object>] ",clickByJS,,,UnusedElements
5,Browser,Wait for [<Data>] milli seconds,pause,@2000,,
6,Checkout,Click on [<Object>],clickByJS,,,UnusedElements
7,Browser,Wait for Page to be loaded,waitForPageLoaded,,,
