Step,ObjectName,Description,Action,Input,Condition,Reference
1,Browser,Open the Url [<Data>] in the Browser,Open,Desktop:MyAccountURL,,
2,Lists_Favorites,Wait untill given condition is satisfied,conditionalWait,,,MAC_EMEA
3,Lists_Favorites,Click on [<Object>],clickByJS,,,MAC_EMEA
4,Browser,Scroll to [<Data>],scrollTo,"@200,500",,
5,ProductImage,Wait untill given condition is satisfied,conditionalWait,,,Favorites
6,ProductImage,Drags the [<Object>],dragElement,,,Favorites
7,Browser,Wait for [<Data>] milli seconds,pause,@3000,,
8,Object,Move the Browser View to the specified element [<Object>],moveTo,,,Favorites
9,Object,Drops the Dragged Object to [<Object>],dropElement,,,Favorites
10,ListNameField,"Wait for [<Object>] to be visible ",waitForElementToBeVisible,,,Favorites
11,ListNameField,Enter the value [<Data>] in the Field [<Object>],Set,@ELC1,,Favorites
12,Browser,Wait for Page to be loaded,waitForPageLoaded,,,
13,Browser,Wait for [<Data>] milli seconds,pause,@3000,,
14,ContinueCreatingList,Click the [<Object>] if it exists,clickByJS,,,Favorites
