Step,ObjectName,Description,Action,Input,Condition,Reference
1,Browser,,Open,Desktop:URL,,
2,Browser,,waitForPageLoaded,,,
3,Browser,,pause,@3000,,
4,Browser,,scrollTo,"@250,500",,
5,MppHover,,mouseOverElement,,,MAC_EMEA
6,QuickView,,clickByJS,,,MAC_EMEA
7,FavOwnQV,,clickByJS,,,FavoritesIcon
8,Browser,,pause,@5000,,
