Step,ObjectName,Description,Action,Input,Condition,Reference
1,Browser,Open the Url [<Data>] in the Browser,Open,Desktop:url4,,
2,AddproductsToMyFavorites,Wait untill given condition is satisfied,conditionalWait,,,FavoritesIcon
3,AddproductsToMyFavorites,Click on [<Object>],clickByJS,,,FavoritesIcon
