Step,ObjectName,Description,Action,Input,Condition,Reference
1,Browser,Scroll to top,scrollToTop,,,
2,Sign_Out,Wait  for the element [<Object>] to be present,waitForElementToBePresent,,,MAC_EMEA
3,Sign_Out,Click on [<Object>],clickByJS,,,MAC_EMEA
4,Browser,Wait for Page to be loaded,waitForPageLoaded,,,
5,Browser,Wait for [<Data>] milli seconds,pause,@2000,,
