Step,ObjectName,Description,Action,Input,Condition,Reference
1,Browser,,Open,Desktop:MyAccountURL,,
2,Browser,,waitForPageLoaded,,,
3,Browser,,pause,@3000,,
4,Lists_Favorites,,clickByJS,,,MAC_EMEA
5,Browser,,waitForPageLoaded,,,
6,Browser,,pause,@5000,,
7,Browser,,scrollToBottom,,,
8,Name_your_Wish_List,,Set,@test3,,MAC_EMEA
9,Browser,,pause,@2000,,
"//10",icon_grad,,clickByJS,,,MAC_EMEA
11,Browser,,pause,@2000,,
12,Create_my_new_list,,clickByJS,,,MAC_EMEA
13,Browser,,waitForPageLoaded,,,
14,Browser,,pause,@5000,,
15,Browser,,scrollTo,"@250,400",,
16,Add_to_list63,,clickByJS,,,MAC_EMEA
17,Browser,,pause,@2000,,
18,test_1_,,ClickIfVisible,,,MAC_EMEA
19,Browser,,pause,@4000,,
