Step,ObjectName,Description,Action,Input,Condition,Reference
1,Browser,,pause,@5000,,
2,Browser,,waitForPageLoaded,,,
3,Browser,,Open,Desktop:ViewcartURL,,
4,Browser,,waitForPageLoaded,,,
5,Browser,,pause,@7000,,
