Step,ObjectName,Description,Action,Input,Condition,Reference
1,Browser,Wait for Page to be loaded,waitForPageLoaded,,,
2,Browser,Wait for [<Data>] milli seconds,pause,@5000,,
3,First Name,"Wait for [<Object>] to be visible ",waitForElementToBeVisible,,,Checkout
4,First Name,Enter the value [<Data>] in the Field [<Object>],Set,Desktop:FirstName,,Checkout
5,Last Name,Enter the value [<Data>] in the Field [<Object>],Set,Desktop:LastName,,Checkout
6,Address 1,Enter the value [<Data>] in the Field [<Object>],Set,Desktop:Address1,,Checkout
7,Address 2,Enter the value [<Data>] in the Field [<Object>],Set,Desktop:Address2,,Checkout
8,City,Enter the value [<Data>] in the Field [<Object>],Set,Desktop:City,,Checkout
9,Zip Code,Enter the value [<Data>] in the [<Object>] if it exists,Set,Desktop:Zipcode,,Checkout
10,Browser,Wait for [<Data>] milli seconds,pause,@3000,,
11,StateDropDownElement1,Select item in [<Object>] which has the value: [<Data>],selectByValue,Desktop:Province,,Checkout
"//12",City,clear  the [<Object>] text if any,clear,,,Checkout
"//13",City,Enter the value [<Data>] in the Field [<Object>],Set,Desktop:City,,Checkout
14,Browser,Wait for [<Data>] milli seconds,pause,@1000,,
15,Phone,Enter the value [<Data>] in the Field [<Object>],Set,Desktop:Phone,,Checkout
16,Mobile Number,Enter the value [<Data>] in the Field [<Object>],Set,Desktop:Mobile,,Checkout
17,Continue Shipping,Wait  for the element [<Object>] to be present,waitForElementToBePresent,,,Checkout
18,Continue Shipping,Click on [<Object>],clickByJS,,,Checkout
19,Browser,Wait for Page to be loaded,waitForPageLoaded,,,
20,Browser,Wait for [<Data>] milli seconds,pause,@5000,,
