Step,ObjectName,Description,Action,Input,Condition,Reference
1,Browser,,Open,Desktop:URL,,
2,Browser,,pause,@10000,,
3,Browser,,ClearCache,,,
4,Browser,,refreshDriver,,,
5,Browser,,waitForPageLoaded,,,
6,Browser,,pause,@3000,,
7,Close button,,ClickIfVisible,,,UnusedElements
8,Browser,,scrollTo,"@250,500",,
9,Add to Bag,,clickByJS,,,AddToBag
10,Browser,,pause,@8000,,
