Step,ObjectName,Description,Action,Input,Condition,Reference
1,Browser,,pause,@5000,,
2,Email Return user,,waitForElementToBeVisible,,,Checkout
3,Email Return user,,Set,Desktop:UserName,,Checkout
4,Password Return user,,Set,Desktop:Password,,Checkout
5,Continue Return user,,clickByJS,,,Checkout
6,Browser,,waitForPageLoaded,,,
7,Browser,,pause,@5000,,
