Step,ObjectName,Description,Action,Input,Condition,Reference
1,Browser,,pause,@10000,,
2,Browser,,scrollToTop,,,
3,Continue Checkout,,clickByJS,,,Samples
4,Browser,,waitForPageLoaded,,,
5,Browser,,pause,@5000,,
6,Browser,,scrollTo,"@250,400",,Samples
7,Select Sample,,clickByJS,,,Samples
8,Browser,,pause,@5000,,Samples
9,Browser,,scrollToTop,,,
10,ContinueCheckoutwithOrder,,waitForElementToBePresent,,,Samples
11,ContinueCheckoutwithOrder,,clickByJS,,,Samples
12,Browser,,waitForPageLoaded,,,
13,Browser,,pause,@5000,,
