Step,ObjectName,Description,Action,Input,Condition,Reference
1,Browser,Wait for Page to be loaded,waitForPageLoaded,,,
2,Shipping_Billing,Click the [<Object>] if it is displayed,Click,,,MAC_EMEA
3,Browser,Send Keys [<Data>]  to Window.,sendKeysToWindow,@Down,,
4,Browser,Send Keys [<Data>]  to Window.,sendKeysToWindow,@Down,,
5,Browser,Send Keys [<Data>]  to Window.,sendKeysToWindow,@Down,,
6,Browser,Send Keys [<Data>]  to Window.,sendKeysToWindow,@Down,,
7,Edit_myAcc_addressbook,"Wait for [<Object>] to be visible ",assertElementPresent,,,MAC_EMEA
"//8",Edit_myAcc_addressbook,Move the Browser View to the specified element [<Object>],moveTo,,,MAC_EMEA
9,Edit_myAcc_addressbook,"Click the [<Object>] ",Click,,,MAC_EMEA
10,Browser,Wait for [<Data>] milli seconds,pause,@5000,,
