Step,ObjectName,Description,Action,Input,Condition,Reference
1,Browser,Wait for [<Data>] milli seconds,pause,@3000,,
"//2",ViewProfile,"Click the [<Object>] ",Click,,,MAC_Gnav_Explora
3,Browser,Wait for [<Data>] milli seconds,pause,@3000,,
4,Artistry,Assert if [<Object>] is present,assertElementPresent,,,Artistry
5,Browser,Wait for [<Data>] milli seconds,pause,@3000,,
6,THE PROFESSIONAL MAKE-UP,Assert if [<Object>] is present,assertElementPresent,,,Artistry
7,VIDEOS,Assert if [<Object>] is present,assertElementPresent,,,Artistry
8,Browser,Wait for [<Data>] milli seconds,pause,@2000,,
9,artistry--artist-hero-image,Assert if [<Object>] is present,assertElementPresent,,,Artistry
10,Browser,Send Keys [<Data>]  to Window.,sendKeysToWindow,@Down,,
11,Browser,Send Keys [<Data>]  to Window.,sendKeysToWindow,@Down,,
12,Browser,Send Keys [<Data>]  to Window.,sendKeysToWindow,@Down,,
13,Browser,Send Keys [<Data>]  to Window.,sendKeysToWindow,@Down,,
14,Browser,Send Keys [<Data>]  to Window.,sendKeysToWindow,@Down,,
15,ABOUT THE PROFESSIONAL MAKE-UP,Assert if [<Object>] is present,assertElementPresent,,,Artistry
16,ArtistSignature,Move the Browser View to the specified element [<Object>],moveTo,,,Artistry
17,ArtistSignature,Assert if [<Object>] is present,assertElementPresent,,,Artistry
18,ProductSection,Move the Browser View to the specified element [<Object>],moveTo,,,Artistry
19,ProductSection,Assert if [<Object>] is present,assertElementPresent,,,Artistry
