Step,ObjectName,Description,Action,Input,Condition,Reference
"//1",Browser,Open the Url [<Data>] in the Browser,Open,@http://e.maccosmetics.emea2.es.stage.emea.elcdev.net/product/791/40446/productos/paletas-personalizadas/paleta-de-sombra-de-ojos-x4,,
2,Browser,Wait for [<Data>] milli seconds,pause,@8000,,
"//3",PERSONALIZAR,"Click the [<Object>] ",Click,,,MAC-EMEA-ES
4,personalise_ro,"Click the [<Object>] ",Click,,,MAC-EMEA-ES
5,Browser,Wait for [<Data>] milli seconds,pause,@3000,,
6,Browser,Scroll to [<Data>],scrollTo,"@250,350",,
"//7",Add to Bag,Move the Browser View to the specified element [<Object>],moveTo,,,AddToBag
8,Add to Bag,Assert if [<Object>] is not enabled,assertElementAttrEquals,@disabled true,,AddToBag
9,Browser,Wait for [<Data>] milli seconds,pause,@5000,,
"//10",Browser,Send Keys [<Data>]  to Window.,sendKeysToWindow,@Up,,
"//11",Browser,Send Keys [<Data>]  to Window.,sendKeysToWindow,@Up,,
12,Creme de Violet,Drags the [<Object>],dragElement,,,MAC-EMEA-ES
13,product__detail-zone ui-droppable,Drops the Dragged Object to [<Object>],dropElement,,,MAC-EMEA-ES
14,Browser,Wait for [<Data>] milli seconds,pause,@3000,,
15,Antiqued,Drags the [<Object>],dragElement,,,MAC-EMEA-ES
16,product__detail-zone ui-droppable1,Drops the Dragged Object to [<Object>],dropElement,,,MAC-EMEA-ES
17,Browser,Wait for [<Data>] milli seconds,pause,@3000,,
"//18",product__detail-zone ui-droppable2,Move the Browser View to the specified element [<Object>],moveTo,,,MAC-EMEA-ES
19,Browser,Send Keys [<Data>]  to Window.,sendKeysToWindow,@Down,,
20,Browser,Send Keys [<Data>]  to Window.,sendKeysToWindow,@Down,,
21,Aqua,Drags the [<Object>],dragElement,,,MAC-EMEA-ES
22,product__detail-zone ui-droppable2,Drops the Dragged Object to [<Object>],dropElement,,,MAC-EMEA-ES
23,Browser,Wait for [<Data>] milli seconds,pause,@3000,,
24,Atlantic Blue,Drags the [<Object>],dragElement,,,MAC-EMEA-ES
25,product__detail-zone ui-droppable3,Drops the Dragged Object to [<Object>],dropElement,,,MAC-EMEA-ES
26,Browser,Wait for [<Data>] milli seconds,pause,@3000,,
27,Browser,Send Keys [<Data>]  to Window.,sendKeysToWindow,@Down,,
28,Browser,Send Keys [<Data>]  to Window.,sendKeysToWindow,@Down,,
29,Browser,Send Keys [<Data>]  to Window.,sendKeysToWindow,@Down,,
"//30",Price_CustomPalette,Move the Browser View to the specified element [<Object>],moveTo,,,MAC-EMEA-ES
31,Price_CustomPalette,Assert if [<Object>] element is displayed,assertElementDisplayed,,,MAC-EMEA-ES
32,Edit,Assert if [<Object>] element is displayed,assertElementDisplayed,,,Reviews
33,Add to Bag,"Click the [<Object>] ",Click,,,AddToBag
