Step,ObjectName,Description,Action,Input,Condition,Reference
1,Browser,Wait for Page to be loaded,waitForPageLoaded,,,
2,Browser,Wait for [<Data>] milli seconds,pause,@5000,,
3,Close,Click the [<Object>] if it is displayed,ClickIfVisible,,,Order
4,Browser,Wait for [<Data>] milli seconds,pause,@3000,,
5,Order number,Assert if [<Object>] element is displayed,assertElementDisplayed,,,Order
6,Order number,Store the [<Object>] element's text into datasheet:columname [<Data>],storeTextinDataSheet,Desktop:Ordernumber,,Order
7,Browser,Wait for [<Data>] milli seconds,pause,@3000,,
