Step,ObjectName,Description,Action,Input,Condition,Reference
1,Browser,Wait for [<Data>] milli seconds,pause,@10000,,
2,Browser,Scroll to top,scrollToTop,,,
3,Continue Checkout,Click on [<Object>],clickByJS,,,Samples
4,Browser,Wait for Page to be loaded,waitForPageLoaded,,,
5,Browser,Wait for [<Data>] milli seconds,pause,@5000,,
6,Browser,Scroll to [<Data>],scrollTo,"@250,400",,Samples
7,Select Sample,Click on [<Object>],clickByJS,,,Samples
8,Browser,Wait for [<Data>] milli seconds,pause,@5000,,Samples
9,Browser,Scroll to top,scrollToTop,,,
10,ContinueCheckoutwithOrder,Wait  for the element [<Object>] to be present,waitForElementToBePresent,,,Samples
11,ContinueCheckoutwithOrder,Click on [<Object>],clickByJS,,,Samples
12,Browser,Wait for Page to be loaded,waitForPageLoaded,,,
13,Browser,Wait for [<Data>] milli seconds,pause,@5000,,
