Step,ObjectName,Description,Action,Input,Condition,Reference
1,Browser,Open the Url [<Data>] in the Browser,Open,Desktop:MyAccountURL,,
2,Browser,Wait for [<Data>] milli seconds,pause,@2000,,
3,Browser,Wait for Page to be loaded,waitForPageLoaded,,,
4,My_Purchases,"Wait for [<Object>] to be visible ",waitForElementToBeVisible,,,MAC_EMEA
5,My_Purchases,Click on [<Object>],clickByJS,,,MAC_EMEA
6,Browser,Wait for [<Data>] milli seconds,pause,@2000,,
7,Browser,Wait for Page to be loaded,waitForPageLoaded,,,
8,ReOrder,"Wait for [<Object>] to be clickable ",waitForElementToBeClickable,,,Order
9,ReOrder,Click on [<Object>],clickByJS,,,Order
10,Browser,Wait for [<Data>] milli seconds,pause,@2000,,
11,Browser,Wait for Page to be loaded,waitForPageLoaded,,,
12,Browser,Wait for [<Data>] milli seconds,pause,@4000,,
