Step,ObjectName,Description,Action,Input,Condition,Reference
1,Browser,,waitForPageLoaded,,,
2,change81,,clickByJS,,,MAC_EMEA
3,Browser,,waitForPageLoaded,,,
4,Browser,,pause,@3000,,
5,Edit_Payment_Method,,clickByJS,,,MAC_EMEA
6,Browser,,waitForPageLoaded,,,
7,Browser,,pause,@5000,,
8,New_Address,,clickByJS,,,MAC_EMEA
9,Browser,,waitForPageLoaded,,,
10,Browser,,pause,@4000,,
11,First Name,,waitForElementToBeVisible,,,Checkout
12,First Name,,Set,Desktop:FirstName,,Checkout
13,Last Name,,Set,Desktop:LastName,,Checkout
14,Address 1,,Set,Desktop:Address1,,Checkout
15,Zip Code,,SetIfExists,Desktop:Zipcode,,Checkout
16,Browser,,pause,@3000,,
17,City,,clear,,,Checkout
18,City,,Set,Desktop:City,,Checkout
19,Browser,,sendKeysToWindow,@Tab,,
20,Browser,,sendKeysToWindow,@Down,,
21,Browser,,sendKeysToWindow,@Down,,
22,Browser,,sendKeysToWindow,@Enter,,
23,STATE,,selectByValue,@AL,,Checkout
24,Phone,,Set,Desktop:Phone,,Checkout
25,Browser,,pause,@2000,,
26,Submit,,clickByJS,,,MAC_EMEA
27,Browser,,pause,@2000,,
28,ContinuePaymentEditPage,,clickByJS,,,Checkout
29,Browser,,waitForPageLoaded,,,
30,Browser,,pause,@3000,,
