Step,ObjectName,Description,Action,Input,Condition,Reference
1,Browser,Wait for Page to be loaded,waitForPageLoaded,,,
2,Browser,Wait for [<Data>] milli seconds,pause,@2000,,
3,GiftwrapCheckBox,Click the [<Object>] if it is displayed,clickByJS,,,GiftWrap
4,Browser,Wait for [<Data>] milli seconds,pause,@2000,,
5,To,Click the [<Object>] if it is displayed,clickByJS,,,GiftWrap
6,To,Enter the value [<Data>] in the [<Object>] if it exists,Set,Desktop:To_Name,,GiftWrap
7,From,Enter the value [<Data>] in the [<Object>] if it exists,Set,Desktop:From_Name,,GiftWrap
8,Message,Enter the value [<Data>] in the [<Object>] if it exists,Set,Desktop:GiftWriap_Msg,,GiftWrap
9,Browser,Wait for [<Data>] milli seconds,pause,@2000,,
10,continue,Click on [<Object>],clickByJS,,,GiftWrap
11,Browser,Wait for [<Data>] milli seconds,pause,@20000,,
12,Browser,Wait for Page to be loaded,waitForPageLoaded,,,
