Step,ObjectName,Description,Action,Input,Condition,Reference
1,Browser,Wait for Page to be loaded,waitForPageLoaded,,,
2,Browser,Wait for [<Data>] milli seconds,pause,@5000,,
"//3",SelectPaymentMethodRadioBtn,"Click the [<Object>] ",clickByJS,,,PaymentEMEA
4,SelectPaymentMethodRadioBtnVisa,"Click the [<Object>] ",Click,,,PaymentEMEA
5,Browser,Wait for [<Data>] milli seconds,pause,@5000,,
6,T&CCheckBox_payment,"Click the [<Object>] ",clickByJS,,,Checkout
7,ContinueforPayment,Click on [<Object>],clickByJS,,,PaymentEMEA
8,Browser,Wait for [<Data>] milli seconds,pause,@10000,,
9,Browser,Wait for Page to be loaded,waitForPageLoaded,,,
"//10",Frame,Switch to frame by name: [<Data>],waitForFrameAndSwitch,,,PaymentEMEA
"//11",Browser,Wait for [<Data>] milli seconds,pause,@2000,,
"//12",CardNumber,Enter the value [<Data>] in the Field [<Object>],Set,Desktop:CCMaster,,PaymentEMEA
"//13",Browser,Send Keys [<Data>]  to Window.,sendKeysToWindow,@tab,,
"//14",Browser,Send Keys [<Data>]  to Window.,sendKeysToWindow,@down,,
"//15",Browser,Send Keys [<Data>]  to Window.,sendKeysToWindow,@down,,
"//16",Browser,Send Keys [<Data>]  to Window.,sendKeysToWindow,@down,,
"//17",Browser,Send Keys [<Data>]  to Window.,sendKeysToWindow,@tab,,
"//18",Browser,Send Keys [<Data>]  to Window.,sendKeysToWindow,@down,,
"//19",Browser,Send Keys [<Data>]  to Window.,sendKeysToWindow,@down,,
"//20",Browser,Send Keys [<Data>]  to Window.,sendKeysToWindow,@down,,
"//21",cvv,Enter the value [<Data>] in the Field [<Object>],Set,Desktop:CVV,,PaymentEMEA
"//22",continue,Click on [<Object>],clickByJS,,,PaymentEMEA
23,ContinuePaymentNew,Click on [<Object>],clickByJS,,,PaymentEMEA
24,Browser,Wait for [<Data>] milli seconds,pause,@5000,,
