Step,ObjectName,Description,Action,Input,Condition,Reference
1,Browser,Wait for [<Data>] milli seconds,pause,@5000,,
2,Browser,Wait for Page to be loaded,waitForPageLoaded,,,
3,Browser,Wait for [<Data>] milli seconds,pause,@3000,,
4,Order number,Assert if [<Object>] element is displayed,assertElementDisplayed,,,Order
5,Order number,Store the [<Object>] element's text into datasheet:columname [<Data>],storeTextinDataSheet,Desktop:Ordernumber,,Order
6,Browser,Wait for [<Data>] milli seconds,pause,@3000,,
7,App,[<Data>] app is closed,closeApp,Desktop:AutoIT,,
