Step,ObjectName,Description,Action,Input,Condition,Reference
1,Browser,,pause,@3000,,
2,Remove,,clickByJS,,,MAC_EMEA
3,Browser,,pause,@2000,,
4,Browser,,waitForPageLoaded,,,
5,Browser,,pause,@30000,,
