Step,ObjectName,Description,Action,Input,Condition,Reference
1,Browser,Open the Url [<Data>] in the Browser,Open,Desktop:HomePageURL,,
2,Site Logo,Wait untill given condition is satisfied,conditionalWait,,,UnusedElements
3,Browser,"Refresh current page ",refreshDriver,,,
4,Site Logo,Wait untill given condition is satisfied,conditionalWait,,,UnusedElements
