Step,ObjectName,Description,Action,Input,Condition,Reference
1,Browser,Wait for [<Data>] milli seconds,pause,@5000,,
2,Header_Search_icon,Assert if [<Object>] is present,assertElementPresent,,,MAC-EMEA-ES
3,Header_Search_icon,"Click the [<Object>] ",clickByJS,,,MAC-EMEA-ES
4,Search text box,Enter the value [<Data>] in the Field [<Object>],Set,Desktop:Product Name,,UnusedElements
5,Browser,Send Keys [<Data>]  to Window.,sendKeysToWindow,@Enter,,
6,Lip_Balm,"Wait for [<Object>] to be invisible ",waitForElementToBeInVisible,,,MAC-EMEA-ES
7,Lip_Balm,Assert if [<Object>] element is displayed,assertElementDisplayed,,,MAC-EMEA-ES
8,Browser,Wait for [<Data>] milli seconds,pause,@3000,,
