Step,ObjectName,Description,Action,Input,Condition,Reference
1,Header_Search_icon,Wait untill given condition is satisfied,conditionalWait,,,MAC-EMEA-ES
2,Header_Search_icon,Assert if [<Object>] is present,assertElementPresent,,,MAC-EMEA-ES
3,Header_Search_icon,"Click the [<Object>] ",clickByJS,,,MAC-EMEA-ES
4,Search text box,clear  the [<Object>] text if any,clearByJS,,,UnusedElements
5,Search text box,Enter the value [<Data>] in the Field [<Object>],Set,Desktop:Product Id,,UnusedElements
6,Browser,Send Keys [<Data>]  to Window.,sendKeysToWindow,@Enter,,
7,Lip_Balm,Wait untill given condition is satisfied,conditionalWait,,,MAC-EMEA-ES
8,Lip_Balm,Assert if [<Object>] element is displayed,assertElementDisplayed,,,MAC-EMEA-ES
