Step,ObjectName,Description,Action,Input,Condition,Reference
"//1",App,Open the Application [<Data>],openApp,Desktop:AutoIT,,
2,Execute,,TC03:MobileBrowserStartup,@1,,
"//3",Execute,,BaseRC:TestOrder,,,
4,Execute,,TC04:MppQuickView,@1,,
5,Execute,,TC03:ViewCartNav,@1,,
6,Execute,,TC03:SamplesCheckout,@1,,
7,Execute,,TC03:CheckoutNewUser,@1,,
8,Execute,,TC03:AddAddress,@1,,
9,Execute,,TC03:GiftWrap,@1,,
10,Execute,,TC03:PaymentDifferentBilling,@1,,
11,Execute,,TC03:PlaceOrder,@1,,
"//12",App,[<Data>] app is closed,closeApp,Desktop:AutoIT,,
