Step,ObjectName,Description,Action,Input,Condition,Reference
"//1",App,Open the Application [<Data>],openApp,Desktop:AutoIT,,
2,Execute,,TC06:MobileBrowserStartup,@1,,
3,Execute,,TC06:SearchByZip,@1,,
4,Execute,,TC06:SearchByCity,@1,,
5,Execute,,TC06:SearchByState,@1,,
6,ReplenishmentCL,"Click the [<Object>] ",Click,,,Checkout16
"//7",App,[<Data>] app is closed,closeApp,Desktop:AutoIT,,
