Step,ObjectName,Description,Action,Input,Condition,Reference
"//1",App,Open the Application [<Data>],openApp,Desktop:AutoIT,,
2,Execute,,TC09:MobileBrowserStartup,@1,,
"//3",Execute,,BaseRC:TestOrder,,,
4,Execute,,TC09:AccountPageNav,@1,,
5,Execute,,TC09:Register,@1,,
6,Execute,,TC09:FavoriteAdd1,@1,,
7,Execute,,TC09:FavoriteAdd2,@1,,
8,Execute,,TC09:FavPageNavMob,@1,,
9,Execute,,TC09:DeleteFavItems,@1,,
10,Execute,,TC09:SignOut,@1,,
"//11",App,[<Data>] app is closed,closeApp,Desktop:AutoIT,,
