Step,ObjectName,Description,Action,Input,Condition,Reference
1,Browser,,pause,@5000,,
2,Browser,,waitForPageLoaded,,,
3,Email_SignIn,,waitForElementToBePresent,,,Cosmetics
4,Email_SignIn,,Set,Desktop:UserName,,Cosmetics
5,Password_SignIn,,Set,Desktop:Password,,Cosmetics
6,Continue_SignIn,,clickByJS,,,Cosmetics
7,Browser,,waitForPageLoaded,,,
8,SignoutMac,,assertElementDisplayed,,,Cosmetics
9,SignoutMac,,clickByJS,,,Cosmetics
