Step,ObjectName,Description,Action,Input,Condition,Reference
1,Browser,,Open,Desktop:MyAccountURL,,
2,Browser,,waitForPageLoaded,,,
3,Browser,,pause,@3000,,
4,Lists_Favorites,,clickByJS,,,Clinique
5,Browser,,waitForPageLoaded,,,
6,Browser,,pause,@5000,,
7,Browser,,scrollToTop,,,
8,Browser,,pause,@3000,,
9,Add to Bag,,clickByJS,,,AddToBag
10,Browser,,pause,@3000,,
11,Add to Bag,,clickByJS,,,AddToBag
12,Browser,,pause,@3000,,
