Step,ObjectName,Description,Action,Input,Condition,Reference
1,Browser,,pause,@3000,,
2,Browser,,scrollTo,"@250,450",,
3,ViewAddress,,waitForElementToBeVisible,,,AddressBook
4,ViewAddress,,Click,,,AddressBook
5,Browser,,waitForPageLoaded,,,
6,Browser,,pause,@5000,,
7,AddNewAddress,,Click,,,AddressBook
8,Browser,,pause,@5000,,
9,First Name,,waitForElementToBeVisible,,,Checkout
10,First Name,,Set,Desktop:FirstName,,Checkout
11,Last Name,,Set,Desktop:LastName,,Checkout
12,Address 1,,Set,Desktop:Address1,,Checkout
13,Zip Code,,SetIfExists,Desktop:Zipcode,,Checkout
14,Browser,,pause,@3000,,
15,City,,clear,,,Checkout
16,City,,Set,Desktop:City,,Checkout
17,Browser,,sendKeysToWindow,@Tab,,
18,Browser,,sendKeysToWindow,@Down,,
19,Browser,,sendKeysToWindow,@Down,,
20,Browser,,sendKeysToWindow,@Enter,,
21,Phone,,Set,Desktop:Phone,,Checkout
22,MakeDefaultAddress,,clickByJS,,,AddressBook
23,Browser,,pause,@3000,,
24,Submit,,clickByJS,,,AddressBook
