Step,ObjectName,Description,Action,Input,Condition,Reference
//1,App,,openApp,@D:\Selenium\AutoIT\bobbi.exe,,
2,Browser,,Open,Desktop:URL,,
3,Browser,,pause,@10000,,
4,Browser,,waitForPageLoaded,,,
5,Browser,,ClearCache,,,
6,Browser,,setBrowserSize,"@400,650",,
7,Browser,,pause,@3000,,
8,Close button,,ClickIfExists,,,UnusedElements
9,Browser,,pause,@5000,,
