Step,ObjectName,Description,Action,Input,Condition,Reference
1,Browser,,Open,Desktop:MyAccountURL,,
2,Browser,,waitForPageLoaded,,,
3,Browser,,pause,@3000,,
4,Lists_Favorites,,clickByJS,,,Clinique
5,Browser,,waitForPageLoaded,,,
6,Browser,,pause,@5000,,
7,Browser,,scrollToBottom,,,
8,Name_your_Wish_List,,Set,@test3,,Clinique
9,Browser,,pause,@2000,,
//10,icon_grad,,clickByJS,,,Clinique
11,Browser,,pause,@2000,,
12,Create_my_new_list,,clickByJS,,,Clinique
13,Browser,,waitForPageLoaded,,,
14,Browser,,pause,@5000,,
15,Browser,,scrollTo,"@250,400",,
16,Add_to_list63,,clickByJS,,,Clinique
17,Browser,,pause,@2000,,
18,test_1_,,ClickIfVisible,,,Clinique
19,Browser,,pause,@4000,,
