Step,ObjectName,Description,Action,Input,Condition,Reference
1,Browser,,pause,@3000,,
2,Browser,,scrollTo,"@250,300",,
3,Browser,,pause,@3000,,
4,Store1,,assertElementDisplayed,,,Store
5,Store2,,assertElementDisplayed,,,Store
6,Browser,,pause,@3000,,
7,Directions,,waitForElementToBeClickable,,,Store
8,Directions,,clickByJS,,,Store
9,Browser,,pause,@3000,,
10,EnterStartLocation,,Set,Desktop:Address1,,Store
11,GetDirections,,clickByJS,,,Store
12,Browser,,waitForPageLoaded,,,
13,Browser,,pause,@5000,,
14,DirectionResults,,assertElementPresent,,,Store
