Step,ObjectName,Description,Action,Input,Condition,Reference
1,Edit,,ClickIfVisible,,,GiftWrap
2,Browser,,pause,@2000,,
3,Gift_wrap_this_order_4_95_,,ClickIfVisible,,,GiftWrap
4,To,,SetIfExists,@Test,,GiftWrap
5,From,,SetIfExists,@Test,,GiftWrap
6,Message,,SetIfExists,@Test,,GiftWrap
