Step,ObjectName,Description,Action,Input,Condition,Reference
1,Execute,,BaseRC:GnavViewExplora,,,
2,CULTURA,"Click the [<Object>] ",Click,,,MAC_Gnav_Explora
3,Browser,Wait for [<Data>] milli seconds,pause,@5000,,
