Step,ObjectName,Description,Action,Input,Condition,Reference
1,Browser,Wait for [<Data>] milli seconds,pause,@2000,,
2,Browser,"Refresh current page ",refreshDriver,,,
3,Browser,Wait for [<Data>] milli seconds,pause,@4000,,
4,EXPLORA,"Click the [<Object>] ",Click,,,MAC_Gnav_Explora
"//5",Browser,Wait for [<Data>] milli seconds,pause,@4000,,
