Step,ObjectName,Description,Action,Input,Condition,Reference
1,Browser,,Open,Desktop:MyAccountURL,,
2,Browser,,waitForPageLoaded,,,
3,Browser,,pause,@3000,,
4,Live_Chat,,clickByJS,,,LiveChat
5,Browser,,pause,@5000,,
6,Contact us,"Assert if [<Object>] contains <Object2> ",assertElementContains,,,LiveChat
7,Browser,,pause,@3000,,
8,What is your name?,Assert if [<Object>] element is displayed,assertElementDisplayed,,,LiveChat
9,Enter name,Set [<Data>] on [<Object>],setByJS,Desktop:FirstName,,LiveChat
10,Email address,Assert if [<Object>] element is displayed,assertElementDisplayed,,,LiveChat
11,Enter email text box,Set [<Data>] on [<Object>],setByJS,Desktop:UserName,,LiveChat
12,SelectionDropdown,Move the Browser View to the specified element [<Object>],moveTo,,,LiveChat
13,SelectionDropdown,Click on [<Object>],clickByJS,,,LiveChat
14,Browser,Send Keys [<Data>]  to Window.,sendKeysToWindow,@Down,,
15,Browser,Send Keys [<Data>]  to Window.,sendKeysToWindow,@Enter,,
16,Cancel,Move the Browser View to the specified element [<Object>],moveTo,,,LiveChat
17,Cancel,Assert if [<Object>] element is displayed,assertElementDisplayed,,,LiveChat
18,Submit,Send Keys [<Data>]  to Window.,clickByJS,,,LiveChat
19,Browser,Wait for [<Data>] milli seconds,pause,@3000,,
20,Thanks for chatting with us. A,"Assert if [<Object>] contains <Object2> ",assertElementTextIContains,@Gracias por charlar con nosotros. Un agente estará con usted pronto.,,LiveChat
21,Browser,,pause,@3000,,
22,CloseChatBox,Click on [<Object>],clickByJS,,,LiveChat
23,Browser,,waitForPageLoaded,,,
