Step,ObjectName,Description,Action,Input,Condition,Reference
1,Browser,,Open,Desktop:URL,"Start Loop ",
2,Browser,,pause,@10000,,
3,Browser,,waitForPageLoaded,,,
4,Browser,"Refresh current page ",refreshDriver,,,
5,Browser,,pause,@3000,"Start Loop ",
6,Add to Bag,"Click the [<Object>] ",Click,,End Loop:@5,AddToBag
7,Browser,Wait for [<Data>] milli seconds,pause,@2000,,
8,MaxLimitPerProductMessage,Assert if [<Object>] element is displayed,assertElementDisplayed,,,Checkout
9,MaxLimitPerProductMessage,Assert if [<Object>]'s Text Equals [Ignorecase] [<Data>],assertElementTextIEquals,Desktop:MaximumLimitPerProduct,,Checkout
