Step,ObjectName,Description,Action,Input,Condition,Reference
1,Browser,,Open,Desktop:URL,,
2,Browser,,waitForPageLoaded,,,
3,Browser,,pause,@5000,,
4,Browser,,sendKeysToWindow,@Esc,,
5,Browser,,pause,@3000,,
6,Email_Register,,Set,Desktop:UserName,,Cosmetics
7,Password_Register,,Set,Desktop:Password,,Cosmetics
8,T&C_Register,,clickByJS,,,Cosmetics
9,Continue_Register,,waitForElementToBeClickable,,,Cosmetics
10,Continue_Register,,clickByJS,,,Cosmetics
11,Browser,,waitForPageLoaded,,,
12,Browser,,pause,@5000,,
13,Browser,,sendKeysToWindow,@Esc,,
