Step,ObjectName,Description,Action,Input,Condition,Reference
1,Browser,,pause,@3000,,
2,Offer Code,,waitForElementToBePresent,,,Checkout
3,Offer Code,,moveTo,,,Checkout
4,Offer Code,,Set,Desktop:Offercode,,Checkout
5,Apply,,clickByJS,,,Checkout
6,Browser,,pause,@5000,,
7,Browser,,scrollToTop,,,
