Step,ObjectName,Description,Action,Input,Condition,Reference
1,Browser,Wait for Page to be loaded,waitForPageLoaded,,,
2,Browser,Wait for [<Data>] milli seconds,pause,@5000,,
"//3",SelectPaymentMethodRadioBtn,"Click the [<Object>] ",clickByJS,,,PaymentEMEA
4,SelectPaymentMethodRadioBtnVisa,"Click the [<Object>] ",Click,,,PaymentEMEA
5,Browser,Wait for [<Data>] milli seconds,pause,@5000,,
6,T&CCheckBox_payment,"Click the [<Object>] ",clickByJS,,,Checkout
7,ContinueforPayment,Click on [<Object>],clickByJS,,,PaymentEMEA
8,CardNumber,Wait untill given condition is satisfied,conditionalWait,,,PayU
9,CardNumber,Enter the value [<Data>] in the Field [<Object>],Set,Desktop:CC,,PayU
10,Browser,Send Keys [<Data>]  to Window.,sendKeysToWindow,@tab,,
11,Browser,Send Keys [<Data>]  to Window.,sendKeysToWindow,@down,,
12,Browser,Send Keys [<Data>]  to Window.,sendKeysToWindow,@down,,
13,Browser,Send Keys [<Data>]  to Window.,sendKeysToWindow,@down,,
14,Browser,Send Keys [<Data>]  to Window.,sendKeysToWindow,@Enter,,
15,Browser,Wait for [<Data>] milli seconds,pause,@4000,,
16,Browser,Send Keys [<Data>]  to Window.,sendKeysToWindow,@tab,,
17,Browser,Send Keys [<Data>]  to Window.,sendKeysToWindow,@down,,
18,Browser,Send Keys [<Data>]  to Window.,sendKeysToWindow,@down,,
19,Browser,Send Keys [<Data>]  to Window.,sendKeysToWindow,@down,,
20,Browser,Send Keys [<Data>]  to Window.,sendKeysToWindow,@Enter,,
21,CVV/CVV2,Wait untill given condition is satisfied,conditionalWait,,,PayU
22,CVV/CVV2,Enter the value [<Data>] in the Field [<Object>],Set,Desktop:CVV,,PayU
23,Owner Name,Enter the value [<Data>] in the Field [<Object>],Set,Desktop:Owner Name,,PayU
24,ContinuePaymentNew,Click on [<Object>],clickByJS,,,PaymentEMEA
25,Browser,Wait for [<Data>] milli seconds,pause,@5000,,
