Step,ObjectName,Description,Action,Input,Condition,Reference
1,Browser,,waitForPageLoaded,,,
2,Browser,,pause,@5000,,
3,CC,,waitForElementToBePresent,,,Checkout
4,CC,,Set,Desktop:CC,,Checkout
5,Browser,,pause,@3000,,
6,Browser,,sendKeysToWindow,@Shift+Tab,,
7,Browser,,sendKeysToWindow,@Down,,
8,Browser,,sendKeysToWindow,@Down,,
9,Browser,,sendKeysToWindow,@Down,,
10,Browser,,sendKeysToWindow,@Down,,
11,Browser,,sendKeysToWindow,@Down,,
12,Browser,,sendKeysToWindow,@Down,,
13,Browser,,sendKeysToWindow,@Up,,
14,Browser,,pause,@3000,,
15,CC,,Set,Desktop:CC,,Checkout
16,Browser,,sendKeysToWindow,@Tab,,
17,Browser,,sendKeysToWindow,@Down,,
18,Browser,,sendKeysToWindow,@Down,,
19,Browser,,sendKeysToWindow,@Down,,
20,Browser,,sendKeysToWindow,@Tab,,
21,Browser,,sendKeysToWindow,@Down,,
22,Browser,,sendKeysToWindow,@Down,,
23,Browser,,sendKeysToWindow,@Down,,
24,Browser,,sendKeysToWindow,@Down,,
25,Browser,,sendKeysToWindow,@Down,,
//26,Browser,,sendKeysToWindow,@Enter,,
27,Browser,,pause,@2000,,
28,Browser,,scrollTo,"@250,500",,
29,UseAddressCheckBox,,ClickIfVisible,,,Checkout
30,UseAddressDropdown,,ClickIfVisible,,,Checkout
31,Browser,,sendKeysToWindow,@down,,
32,Browser,,sendKeysToWindow,@tab,,
33,Browser,,scrollToBottom,,,
34,PasswordCheckoutCL,,SetIfExists,@123456,,Checkout
35,Browser,,scrollToTop,,,
36,Browser,,pause,@3000,,
37,Continue payment,,ClickIfVisible,,,Checkout
38,Browser,,waitForPageLoaded,,,
