Step,ObjectName,Description,Action,Input,Condition,Reference
1,SelectPaymentMethodRadioBtn,"Click the [<Object>] ",Click,,,PaymentEMEA
2,Browser,Wait for [<Data>] milli seconds,pause,@2000,,
3,ContinueforPayment,Assert if [<Object>] is enabled on the current page,assertElementEnabled,,,PaymentEMEA
4,ContinueforPayment,"Click the [<Object>] ",clickByJS,,,PaymentEMEA
5,Browser,Wait for [<Data>] milli seconds,pause,@2000,,
