Step,ObjectName,Description,Action,Input,Condition,Reference
1,Browser,,sendKeysToWindow,@Tab,,
2,Browser,,sendKeysToWindow,@Down,,
3,Browser,,sendKeysToWindow,@Down,,
4,Browser,,sendKeysToWindow,@Enter,,
5,Browser,,pause,@5000,,
