Step,ObjectName,Description,Action,Input,Condition,Reference
1,Browser,,pause,@5000,,
2,Browser,,sendKeysToWindow,@Esc,,
3,Email Return user,,waitForElementToBeVisible,,,Checkout
4,Email Return user,,Set,Desktop:UserName,,Checkout
5,Password Return user,,Set,Desktop:Password,,Checkout
6,Continue Return user,,clickByJS,,,Checkout
7,Browser,,pause,@10000,,
8,Browser,,sendKeysToWindow,@Esc,,
