Step,ObjectName,Description,Action,Input,Condition,Reference
1,Stores,,clickByJS,,,Clinique32
2,Browser,,pause,@3000,,
3,Enter_City_State_or_Zip_Code,,Set,,,Clinique32
4,Find_Locations,,clickByJS,,,Clinique32
