Step,ObjectName,Description,Action,Input,Condition,Reference
1,Browser,Open the Url [<Data>] in the Browser,Open,Desktop:URL,,
2,Site Logo,Wait untill given condition is satisfied,conditionalWait,,,UnusedElements
