Step,ObjectName,Description,Action,Input,Condition,Reference
1,Browser,Wait for [<Data>] milli seconds,pause,@10000,,
2,Browser,Send Keys [<Data>]  to Window.,sendKeysToWindow,@Esc,,
3,Browser,Scroll to top,scrollToTop,,,
4,Continue Checkout,Click on [<Object>],clickByJS,,,Samples
5,Browser,Wait for Page to be loaded,waitForPageLoaded,,,
6,ContinueCheckoutwithOrder,Click on [<Object>],clickByJS,,,Samples
7,Browser,Wait for [<Data>] milli seconds,pause,@5000,,
8,Browser,Send Keys [<Data>]  to Window.,sendKeysToWindow,@Esc,,
