Step,ObjectName,Description,Action,Input,Condition,Reference
1,Browser,Open the Url [<Data>] in the Browser,Open,Desktop:Gmail_URL,,
2,Browser,Wait for [<Data>] milli seconds,pause,@5000,,
3,Sign In,"Click the [<Object>] ",Click,,,OrderConfirmationMail
4,Enter your email,Assert if [<Object>] is enabled on the current page,assertElementEnabled,,,OrderConfirmationMail
5,Enter your email,Enter the value [<Data>] in the Field [<Object>],Set,Desktop:UserName,,OrderConfirmationMail
6,Next,"Click the [<Object>] ",Click,,,OrderConfirmationMail
7,Browser,Wait for [<Data>] milli seconds,pause,@3000,,
8,Password,Enter the value [<Data>] in the Field [<Object>],Set,Desktop:Gmail_Password,,OrderConfirmationMail
9,Next1,"Click the [<Object>] ",Click,,,OrderConfirmationMail
10,Browser,Wait for [<Data>] milli seconds,pause,@20000,,
11,Search_box,Assert if [<Object>] element is displayed,assertElementDisplayed,,,OrderConfirmationMail
12,Browser,Wait for [<Data>] milli seconds,pause,@10000,,
13,Search_box,Enter the value [<Data>] in the Field [<Object>],Set,@Your M·A·C Cosmetics Online Request,,OrderConfirmationMail
14,Browser,Send Keys [<Data>]  to Window.,sendKeysToWindow,@Enter,,
15,Browser,Wait for [<Data>] milli seconds,pause,@4000,,
16,filtered_mail,Assert if [<Object>] element is displayed,assertElementDisplayed,,,OrderConfirmationMail
17,filtered_mail,"Click the [<Object>] ",Click,,,OrderConfirmationMail
18,Browser,Wait for [<Data>] milli seconds,pause,@4000,,
19,TemporaryPassword,Assert if [<Object>] element is displayed,assertElementDisplayed,,,OrderConfirmationMail
20,TemporaryPassword,Store the [<Object>] element's text into datasheet:columname [<Data>],storeTextinDataSheet,Desktop:Temporary Password,,OrderConfirmationMail
21,Browser,Wait for [<Data>] milli seconds,pause,@3000,,
22,Profile,Click on [<Object>],Click,,,OrderConfirmationMail
23,Sign out,Verify if [<Object>] element is displayed,verifyElementDisplayed,,,OrderConfirmationMail
24,Sign out,Click on [<Object>],Click,,,OrderConfirmationMail
