Step,ObjectName,Description,Action,Input,Condition,Reference
1,Browser,,Open,Desktop:url5,,
2,Browser,,waitForPageLoaded,,,
3,Browser,,scrollTo,"@250,500",,
4,Add to Bag,Wait untill given condition is satisfied,conditionalWait,,,AddToBag
5,Add to Bag,,clickByJS,,,AddToBag
6,Browser,,pause,@5000,,
