Step,ObjectName,Description,Action,Input,Condition,Reference
1,Browser,Open the Url [<Data>] in the Browser,Open,Desktop:URL_VirtualSets,,
2,Browser,Wait for [<Data>] milli seconds,pause,@5000,,
3,VirtualSetPrice,"Assert if [<Object>] contains <Object2> ",assertElementDisplayed,,,VirtualSet
4,Add to Bag,Move the Browser View to the specified element [<Object>],moveTo,,,AddToBag
5,Add to Bag,"Click the [<Object>] ",Click,,,AddToBag
