Step,ObjectName,Description,Action,Input,Condition,Reference
1,SelectPaymentMethodRadioBtn,Wait untill given condition is satisfied,conditionalWait,,,PaymentEMEA
2,SelectPaymentMethodRadioBtn,"Click the [<Object>] ",clickByJS,,,PaymentEMEA
3,CardNumber,Wait untill given condition is satisfied,conditionalWait,,,PaymentEMEA
4,CardNumber,Enter the value [<Data>] in the Field [<Object>],Set,Desktop:CC,,PaymentEMEA
5,Owner Name,Enter the value [<Data>] in the Field [<Object>],Set,Desktop:FirstName,,PaymentEMEA
6,Browser,Send Keys [<Data>]  to Window.,sendKeysToWindow,@Tab,,
7,Browser,Send Keys [<Data>]  to Window.,sendKeysToWindow,@Down,,
8,Browser,Send Keys [<Data>]  to Window.,sendKeysToWindow,@Tab,,
9,Browser,Send Keys [<Data>]  to Window.,sendKeysToWindow,@Down,,
10,Browser,Send Keys [<Data>]  to Window.,sendKeysToWindow,@Down,,
11,CVV/CVV2,Enter the value [<Data>] in the Field [<Object>],Set,Desktop:CVV,,PaymentEMEA
12,continue,Click on [<Object>],clickByJS,,,PaymentEMEA
