Step,ObjectName,Description,Action,Input,Condition,Reference
1,Browser,,Open,Desktop:url5,,
2,Browser,,waitForPageLoaded,,,
3,Browser,,pause,@3000,,
4,Browser,,scrollTo,"@250,500",,
5,Add to Bag,,clickByJS,,,AddToBag
6,Browser,,pause,@10000,,
