Step,ObjectName,Description,Action,Input,Condition,Reference
1,Site Logo,Wait untill given condition is satisfied,conditionalWait,,,UnusedElements
"//2",AddressDropdown_Shipping,Wait untill given condition is satisfied,conditionalWait,,,Checkout
"//3",AddressDropdown_Shipping,"Click the [<Object>] ",Click,,,Checkout
"//4",Browser,Send Keys [<Data>]  to Window.,sendKeysToWindow,@Down,,
"//5",Browser,Send Keys [<Data>]  to Window.,sendKeysToWindow,@Enter,,
6,Browser,Wait for Page to be loaded,waitForPageLoaded,,,
7,Edit,Click on [<Object>],clickByJS,,,MAC_EMEA
8,First Name,Wait untill given condition is satisfied,conditionalWait,,,Checkout
9,First Name,Enter the value [<Data>] in the Field [<Object>],Set,@Xandar,,Checkout
10,Last Name,Enter the value [<Data>] in the Field [<Object>],Set,@Spencer,,Checkout
11,Browser,Wait for [<Data>] milli seconds,pause,@3000,,
12,Continue_Checkout,Click on [<Object>],clickByJS,,,MAC_EMEA
13,Proceed to Payment,Wait untill given condition is satisfied,conditionalWait,,,Checkout
14,Proceed to Payment,Click on [<Object>],clickByJS,,,Checkout
