Step,ObjectName,Description,Action,Input,Condition,Reference
1,Browser,,Open,Desktop:URL,,
2,Browser,,pause,@10000,,
3,Browser,,ClearCache,,,
4,Browser,,waitForPageLoaded,,,
5,Browser,,pause,@3000,,
6,Browser,,setBrowserSize,"@300,650",,
7,Browser,,waitForPageLoaded,,,
8,Browser,,pause,@7000,,
