Step,ObjectName,Description,Action,Input,Condition,Reference
1,Browser,,pause,@3000,,
"//2",Remove,Move the Browser View to the specified element [<Object>],moveTo,,,MAC_EMEA
3,Remove,,clickByJS,,,MAC_EMEA
4,Browser,,waitForPageLoaded,,,
5,Browser,,pause,@5000,,
