Step,ObjectName,Description,Action,Input,Condition,Reference
1,Browser,Wait for [<Data>] milli seconds,pause,@10000,,
2,Browser,Send Keys [<Data>]  to Window.,sendKeysToWindow,@Esc,,
3,Browser,Scroll to top,scrollToTop,,,
4,Continue Checkout,Click on [<Object>],clickByJS,,,Samples
5,Browser,Wait for Page to be loaded,waitForPageLoaded,,,
6,Browser,Wait for [<Data>] milli seconds,pause,@5000,,
7,Browser,Scroll to [<Data>],scrollTo,"@250,400",,Samples
8,Select Sample,Click the [<Object>] if it is displayed,clickByJS,,,Samples
9,Browser,Wait for [<Data>] milli seconds,pause,@5000,,Samples
10,Browser,Scroll to top,scrollToTop,,,
"//11",ContinueCheckoutwithOrder,Wait  for the element [<Object>] to be present,waitForElementToBePresent,,,Samples
12,ContinueCheckoutwithOrder,Click the [<Object>] if it is displayed,clickByJS,,,Samples
13,Browser,Wait for Page to be loaded,waitForPageLoaded,,,
14,Browser,Wait for [<Data>] milli seconds,pause,@5000,,
