Step,ObjectName,Description,Action,Input,Condition,Reference
1,Browser,,Open,Desktop:MyAccountURL,,
2,Browser,,waitForPageLoaded,,,
3,Browser,,pause,@2000,,
4,Browser,,scrollToTop,,,
5,Sign_Out,,waitForElementToBePresent,,,MAC_EMEA
6,Sign_Out,,clickByJS,,,MAC_EMEA
7,Browser,,waitForPageLoaded,,,
8,Browser,,pause,@2000,,
