Step,ObjectName,Description,Action,Input,Condition,Reference
1,Browser,,pause,@5000,,
2,Shipping_Billing,,waitForElementToBePresent,,,MAC_EMEA
3,Shipping_Billing,,clickByJS,,,MAC_EMEA
4,Browser,,waitForPageLoaded,,,
5,Browser,,pause,@3000,,
6,Delete,,waitForElementToBeClickable,,,AddressBook
7,Delete,,clickByJS,,,AddressBook
8,Browser,,pause,@3000,,
9,DeletePopup,,waitForElementToBeClickable,,,AddressBook
10,DeletePopup,,clickByJS,,,AddressBook
11,Browser,,waitForPageLoaded,,,
12,Browser,,pause,@3000,,
