Step,ObjectName,Description,Action,Input,Condition,Reference
1,Browser,Wait for Page to be loaded,waitForPageLoaded,,,
2,Browser,Wait for [<Data>] milli seconds,pause,@3000,,
"//3",Browser,Send Keys [<Data>]  to Window.,sendKeysToWindow,@tab,,
4,Browser,Send Keys [<Data>]  to Window.,sendKeysToWindow,@down,,
5,Browser,Send Keys [<Data>]  to Window.,sendKeysToWindow,@down,,
6,Browser,Send Keys [<Data>]  to Window.,sendKeysToWindow,@enter,,
7,Browser,Wait for [<Data>] milli seconds,pause,@10000,,
"//8",quantity,Click on [<Object>],clickByJS,,,MAC_EMEA
"//9",Browser,Wait for [<Data>] milli seconds,pause,@1000,,
"//10",QuantityDropDownElement3,Click on [<Object>],clickByJS,,,MAC_EMEA
11,Browser,Wait for [<Data>] milli seconds,pause,@10000,,
