Step,ObjectName,Description,Action,Input,Condition,Reference
1,Browser,,Open,Desktop:MyAccountURL,,
2,Browser,,waitForPageLoaded,,,
3,Browser,,pause,@3000,,
4,Live_Chat,,clickByJS,,,MAC_EMEA
5,Browser,,waitForPageLoaded,,,
6,Browser,,pause,@5000,,
7,Browser,,assertUrlContains,@livechat,,
8,Browser,,pause,@3000,,
9,Chat_now,,clickByJS,,,MAC_EMEA
10,Browser,,pause,@3000,,
11,Browser,,waitForPageLoaded,,,
