Step,ObjectName,Description,Action,Input,Condition,Reference
1,Browser,,Open,Desktop:MyAccountURL,,
2,Browser,,waitForPageLoaded,,,
3,My_Purchases,,waitForElementToBeClickable,,,MAC_EMEA
4,My_Purchases,,clickByJS,,,MAC_EMEA
5,Browser,,waitForPageLoaded,,,
6,Browser,,pause,@5000,,
7,Browser,,assertUrlContains,@past_purchases,,
8,Browser,,pause,@3000,,
9,View_Details,,clickByJS,,,MAC_EMEA
10,Browser,,waitForPageLoaded,,,
11,Browser,,pause,@3000,,
12,ReOrder,,clickByJS,,,Order
13,Browser,,waitForPageLoaded,,,
14,Browser,,pause,@4000,,
