Step,ObjectName,Description,Action,Input,Condition,Reference
1,Browser,,waitForPageLoaded,,,
2,Browser,,pause,@3000,,
3,Browser,,Open,Desktop:MyAccountURL,,
4,Browser,,waitForPageLoaded,,,
5,Browser,,pause,@3000,,
6,Auto-Ship,,clickByJS,,,MAC_EMEA
7,Browser,,waitForPageLoaded,,,
8,Browser,,pause,@3000,,
9,11_17_2016,,storeTextinDataSheet,Desktop:NEXTDATE,,MAC_EMEA
10,Browser,,pause,@3000,,
