Step,ObjectName,Description,Action,Input,Condition,Reference
1,Browser,,pause,@10000,,
2,Browser,,scrollToTop,,,
3,Continue Checkout,,clickByJS,,,Samples
4,Browser,,waitForPageLoaded,,,
5,Browser,,pause,@5000,,
6,Close button,,ClickIfVisible,,,UnusedElements
